TMIN,DATE
-3.5240000000000005,1990-01-01
-3.2576923076923077,1990-01-02
-2.511111111111111,1990-01-03
-2.434615384615385,1990-01-04
-4.761538461538462,1990-01-05
-4.353571428571429,1990-01-06
-3.403703703703704,1990-01-07
-2.4848484848484858,1990-01-08
-3.2031250000000004,1990-01-09
-3.2,1990-01-10
-3.6653846153846152,1990-01-11
-3.851724137931035,1990-01-12
-2.7230769230769236,1990-01-13
-4.757142857142857,1990-01-14
-4.346666666666666,1990-01-15
-3.0034482758620684,1990-01-16
-3.382142857142857,1990-01-17
-4.0928571428571425,1990-01-18
-3.1115384615384625,1990-01-19
-3.048148148148148,1990-01-20
-2.6166666666666667,1990-01-21
-3.6103448275862067,1990-01-22
-4.051851851851851,1990-01-23
-2.885185185185185,1990-01-24
-3.3230769230769233,1990-01-25
-4.243478260869566,1990-01-26
-2.6156249999999996,1990-01-27
-4.422222222222222,1990-01-28
-2.797058823529412,1990-01-29
-3.360606060606061,1990-01-30
-4.064516129032258,1990-01-31
-3.6374999999999997,1990-02-01
-3.4896551724137934,1990-02-02
-4.965217391304347,1990-02-03
-2.851724137931034,1990-02-04
-2.0787878787878795,1990-02-05
-1.9137931034482758,1990-02-06
-2.892592592592593,1990-02-07
-2.46,1990-02-08
-2.8931034482758617,1990-02-09
-2.546875,1990-02-10
-3.0620689655172413,1990-02-11
-3.23939393939394,1990-02-12
-3.6040000000000005,1990-02-13
-3.338235294117647,1990-02-14
-3.3416666666666672,1990-02-15
-3.6709677419354847,1990-02-16
-3.422580645161291,1990-02-17
-3.5857142857142854,1990-02-18
-2.4107142857142856,1990-02-19
-2.443333333333334,1990-02-20
-2.515625,1990-02-21
-3.55625,1990-02-22
-3.03103448275862,1990-02-23
-2.693939393939394,1990-02-24
-2.459459459459459,1990-02-25
-2.7517241379310344,1990-02-26
-3.6914285714285713,1990-02-27
-2.7742857142857145,1990-02-28
-0.9444444444444444,1990-02-29
-0.6185185185185186,1990-03-01
-0.8757575757575758,1990-03-02
-0.5457142857142857,1990-03-03
-0.025000000000000015,1990-03-04
-1.1085714285714283,1990-03-05
-0.9393939393939394,1990-03-06
-0.38235294117647056,1990-03-07
-0.63,1990-03-08
-0.9794117647058824,1990-03-09
-0.5906250000000003,1990-03-10
-0.23448275862068965,1990-03-11
-0.6030303030303031,1990-03-12
-0.26388888888888895,1990-03-13
-0.15000000000000002,1990-03-14
0.2781249999999999,1990-03-15
0.8027027027027028,1990-03-16
1.3125,1990-03-17
0.6937500000000001,1990-03-18
0.7678571428571429,1990-03-19
-0.1666666666666667,1990-03-20
0.1864864864864865,1990-03-21
-0.276,1990-03-22
0.16764705882352945,1990-03-23
0.7513513513513514,1990-03-24
1.1968749999999995,1990-03-25
1.2774193548387094,1990-03-26
1.8799999999999994,1990-03-27
1.4294117647058826,1990-03-28
2.3000000000000003,1990-03-29
2.3028571428571425,1990-03-30
2.237837837837837,1990-03-31
2.660526315789473,1990-04-01
3.797142857142858,1990-04-02
3.2846153846153854,1990-04-03
2.6972972972972977,1990-04-04
2.6258064516129034,1990-04-05
2.763888888888888,1990-04-06
2.5294117647058814,1990-04-07
1.6518518518518515,1990-04-08
2.4911764705882344,1990-04-09
1.7242424242424241,1990-04-10
2.6885714285714286,1990-04-11
2.591666666666667,1990-04-12
3.052631578947368,1990-04-13
2.249999999999999,1990-04-14
2.776470588235295,1990-04-15
3.984848484848485,1990-04-16
2.0857142857142867,1990-04-17
2.375,1990-04-18
2.716666666666667,1990-04-19
3.8421052631578947,1990-04-20
3.9076923076923094,1990-04-21
4.605263157894737,1990-04-22
5.035897435897437,1990-04-23
4.437142857142859,1990-04-24
5.366666666666668,1990-04-25
5.763414634146342,1990-04-26
6.077142857142856,1990-04-27
5.490909090909089,1990-04-28
6.284848484848484,1990-04-29
6.866666666666666,1990-04-30
7.202777777777778,1990-05-01
6.785714285714288,1990-05-02
5.770588235294119,1990-05-03
6.6189189189189195,1990-05-04
6.770588235294118,1990-05-05
6.894444444444446,1990-05-06
7.66857142857143,1990-05-07
6.667500000000001,1990-05-08
7.694594594594593,1990-05-09
7.776315789473686,1990-05-10
7.78,1990-05-11
8.578378378378378,1990-05-12
8.119444444444444,1990-05-13
8.024242424242425,1990-05-14
7.948571428571428,1990-05-15
7.9783783783783795,1990-05-16
8.356756756756756,1990-05-17
8.7,1990-05-18
9.311428571428573,1990-05-19
9.049999999999999,1990-05-20
9.439999999999996,1990-05-21
9.787500000000001,1990-05-22
8.440540540540542,1990-05-23
8.280555555555557,1990-05-24
8.925,1990-05-25
9.733333333333334,1990-05-26
9.269444444444444,1990-05-27
9.585714285714285,1990-05-28
8.997142857142856,1990-05-29
9.443750000000001,1990-05-30
9.478787878787877,1990-05-31
9.47058823529412,1990-06-01
10.27948717948718,1990-06-02
10.897368421052631,1990-06-03
11.275,1990-06-04
10.77027027027027,1990-06-05
9.841176470588238,1990-06-06
10.870588235294113,1990-06-07
11.521212121212118,1990-06-08
12.003125000000002,1990-06-09
11.202702702702704,1990-06-10
12.0,1990-06-11
11.179411764705883,1990-06-12
11.348780487804882,1990-06-13
11.969444444444447,1990-06-14
11.816666666666666,1990-06-15
10.988235294117647,1990-06-16
10.831428571428575,1990-06-17
11.28108108108108,1990-06-18
11.520000000000001,1990-06-19
12.348648648648648,1990-06-20
11.864705882352938,1990-06-21
12.225,1990-06-22
11.931428571428572,1990-06-23
11.772499999999997,1990-06-24
11.478787878787877,1990-06-25
11.827500000000004,1990-06-26
12.635000000000002,1990-06-27
12.332432432432432,1990-06-28
12.264102564102563,1990-06-29
12.331428571428573,1990-06-30
12.477777777777776,1990-07-01
12.47777777777778,1990-07-02
12.642857142857142,1990-07-03
13.205714285714286,1990-07-04
13.464102564102564,1990-07-05
13.157142857142855,1990-07-06
12.491176470588236,1990-07-07
12.270588235294115,1990-07-08
12.572222222222221,1990-07-09
13.182051282051283,1990-07-10
12.845161290322585,1990-07-11
13.129411764705884,1990-07-12
13.370270270270272,1990-07-13
13.278125000000001,1990-07-14
13.402631578947368,1990-07-15
13.213888888888889,1990-07-16
13.45,1990-07-17
13.694736842105263,1990-07-18
13.85526315789474,1990-07-19
13.30540540540541,1990-07-20
13.310810810810809,1990-07-21
13.197058823529414,1990-07-22
13.041463414634144,1990-07-23
12.787500000000001,1990-07-24
13.503124999999999,1990-07-25
13.289743589743589,1990-07-26
13.994871794871793,1990-07-27
14.083333333333336,1990-07-28
13.613888888888889,1990-07-29
14.081081081081077,1990-07-30
13.677499999999998,1990-07-31
13.745945945945943,1990-08-01
13.762857142857142,1990-08-02
14.305405405405411,1990-08-03
14.340625000000001,1990-08-04
13.394444444444446,1990-08-05
12.885714285714284,1990-08-06
13.108333333333336,1990-08-07
14.044444444444444,1990-08-08
13.845714285714285,1990-08-09
12.849999999999998,1990-08-10
13.216666666666665,1990-08-11
13.225714285714284,1990-08-12
13.282857142857145,1990-08-13
12.381578947368416,1990-08-14
12.92894736842105,1990-08-15
13.190624999999999,1990-08-16
13.27878787878788,1990-08-17
12.928205128205128,1990-08-18
12.877142857142857,1990-08-19
13.152777777777779,1990-08-20
13.16285714285714,1990-08-21
12.032432432432433,1990-08-22
11.688571428571427,1990-08-23
11.988888888888892,1990-08-24
11.875675675675678,1990-08-25
11.799999999999997,1990-08-26
12.208571428571426,1990-08-27
11.56842105263158,1990-08-28
11.227027027027026,1990-08-29
10.730555555555558,1990-08-30
10.870270270270272,1990-08-31
10.723684210526315,1990-09-01
11.228947368421052,1990-09-02
11.411111111111113,1990-09-03
11.233333333333333,1990-09-04
10.296969696969693,1990-09-05
10.337837837837837,1990-09-06
10.115384615384615,1990-09-07
10.275,1990-09-08
10.0875,1990-09-09
9.785714285714286,1990-09-10
10.529729729729729,1990-09-11
10.270588235294117,1990-09-12
10.009677419354837,1990-09-13
9.127272727272727,1990-09-14
10.441176470588239,1990-09-15
9.103124999999999,1990-09-16
9.11111111111111,1990-09-17
8.384848484848483,1990-09-18
8.424324324324326,1990-09-19
8.710526315789474,1990-09-20
8.172727272727272,1990-09-21
8.875,1990-09-22
8.243333333333332,1990-09-23
8.354545454545452,1990-09-24
8.208333333333336,1990-09-25
7.97142857142857,1990-09-26
7.600000000000001,1990-09-27
7.699999999999999,1990-09-28
7.170000000000001,1990-09-29
8.011764705882353,1990-09-30
6.976470588235295,1990-10-01
7.340624999999999,1990-10-02
7.497058823529411,1990-10-03
6.4833333333333325,1990-10-04
6.997142857142858,1990-10-05
7.140000000000001,1990-10-06
6.947826086956522,1990-10-07
7.580645161290321,1990-10-08
6.940624999999999,1990-10-09
5.878124999999999,1990-10-10
5.96774193548387,1990-10-11
5.177419354838709,1990-10-12
4.367857142857143,1990-10-13
4.1885714285714295,1990-10-14
5.140000000000001,1990-10-15
4.932258064516129,1990-10-16
3.8970588235294117,1990-10-17
3.917857142857143,1990-10-18
4.1,1990-10-19
2.9857142857142853,1990-10-20
3.6,1990-10-21
3.8906250000000004,1990-10-22
3.4535714285714287,1990-10-23
3.8433333333333333,1990-10-24
3.534285714285714,1990-10-25
2.9923076923076923,1990-10-26
3.005263157894737,1990-10-27
3.6147058823529403,1990-10-28
2.1875,1990-10-29
2.903125,1990-10-30
1.9838709677419353,1990-10-31
1.5062499999999996,1990-11-01
2.8687499999999995,1990-11-02
3.2433333333333336,1990-11-03
2.7838709677419353,1990-11-04
2.362068965517241,1990-11-05
1.8931034482758615,1990-11-06
2.809090909090909,1990-11-07
2.8346153846153848,1990-11-08
2.0884615384615386,1990-11-09
2.1290322580645156,1990-11-10
1.0709677419354837,1990-11-11
0.6612903225806452,1990-11-12
2.0413793103448272,1990-11-13
-0.0333333333333334,1990-11-14
0.5225806451612904,1990-11-15
0.9620689655172412,1990-11-16
2.0387096774193547,1990-11-17
1.6785714285714286,1990-11-18
0.07857142857142864,1990-11-19
0.06666666666666664,1990-11-20
0.020833333333333343,1990-11-21
0.13000000000000017,1990-11-22
0.2031249999999999,1990-11-23
0.30625,1990-11-24
0.2000000000000001,1990-11-25
0.45625,1990-11-26
1.2999999999999998,1990-11-27
0.0310344827586208,1990-11-28
-0.29230769230769227,1990-11-29
-1.5999999999999999,1990-11-30
-1.7464285714285714,1990-12-01
-1.2576923076923074,1990-12-02
-1.8666666666666667,1990-12-03
-0.9874999999999999,1990-12-04
-1.9999999999999998,1990-12-05
-0.8227272727272728,1990-12-06
-1.2879999999999996,1990-12-07
-1.3321428571428573,1990-12-08
-0.609090909090909,1990-12-09
-1.7272727272727273,1990-12-10
-1.288888888888889,1990-12-11
-1.7714285714285711,1990-12-12
-1.696774193548387,1990-12-13
-1.567857142857143,1990-12-14
-1.76,1990-12-15
-1.2034482758620688,1990-12-16
-2.64,1990-12-17
-1.0586206896551724,1990-12-18
-3.3681818181818177,1990-12-19
-1.2666666666666666,1990-12-20
-2.2379310344827594,1990-12-21
-1.8151515151515154,1990-12-22
-1.3192307692307694,1990-12-23
-1.4259259259259265,1990-12-24
-2.6482758620689664,1990-12-25
-1.7233333333333332,1990-12-26
-1.0133333333333332,1990-12-27
-2.1058823529411765,1990-12-28
-3.0555555555555562,1990-12-29
-3.45,1990-12-30
-3.512,1990-12-31
